pca.R
…
## See spec(...) for full column specifications.

Quitar columnas vacas

vacias <- 29:ncol(dataset)
dataset <- dataset[-vacias]

Columna clase o etiqueta

vDeUco <- "Valle de Uco"
add_column(dataset,label=0)

## # A tibble: 154 x 29
##    `Zona geogrfic      Li    Na    Mg    Al    Ca     Ti       V      Cr
##    <chr>              <dbl> <dbl> <dbl> <dbl> <dbl>  <dbl>   <dbl>   <dbl>
##  1 Valle de Uco     9.95e-2  5.23 26.5  35.4   23.4 0.0930 5.48e-3 3.15e-2
##  2 Valle de Uco     1.00e-4  1.40 77.4   1.71  59.6 0.0541 6.20e-3 1.00e-4
##  3 Valle de Uco     6.86e-2  1.13 80.8   3.54  43.9 0.0246 1.00e-4 5.17e-2
##  4 Valle de Uco     1.82e-1  2.78 11.6   2.84  22.7 0.112  8.78e-3 1.00e-4
##  5 Valle de Uco     7.98e-2  1.19 10.3   2.26  11.9 0.0674 1.74e-3 2.41e-2
##  6 Valle de Uco     6.10e-2  3.70 46.5   1.83  32.7 0.0367 6.53e-5 4.62e-2
##  7 Valle de Uco     3.29e-2  1.64 65.6   2.16  46.3 0.0912 7.19e-3 6.06e-3
##  8 Valle de Uco     6.03e-2  1.70 39.2   5.40  33.2 0.122  4.55e-3 1.12e-2
##  9 Valle de Uco     1.00e-4  3.93 54.7   2.84  44.2 0.0890 1.08e-2 1.00e-4
## 10 Valle de Uco     2.40e-1  1.14  9.23  3.62  18.7 0.0614 1.44e-3 1.40e-2
## # ... with 144 more rows, and 20 more variables: Mn <dbl>, Fe <dbl>,
## #   Co <dbl>, Ni <dbl>, Cu <dbl>, Zn <dbl>, As <dbl>, Se <dbl>, Rb <dbl>,
## #   Sr <dbl>, Mo <dbl>, Pd <dbl>, Ag <dbl>, Cd <dbl>, Sn <dbl>, Sb <dbl>,
## #   Hg <dbl>, `207 Pb` <dbl>, `208 Pb` <dbl>, label <dbl>
…
