preProcess.R
…
table(dataset[1])

## 
##      Noreste          Sur Valle de Uco 
##           42           12          100

dataset$`Zona geogrfica` <- as.factor(dataset$`Zona geogrfica`)
names(dataset)[1] <- "Zona_"

agregar columna etiqueta label para indicar si es o no de Valle de Uco para futura clasificacin binaria

vDeUco <- "Valle de Uco"
add_column(dataset,label=0)

## # A tibble: 154 x 29
##    Zona_           Li    Na    Mg    Al    Ca     Ti       V      Cr    Mn
##    <fct>        <dbl> <dbl> <dbl> <dbl> <dbl>  <dbl>   <dbl>   <dbl> <dbl>
##  1 Valle de 0.0995    5.23 26.5  35.4   23.4 0.0930 5.48e-3 3.15e-2 0.836
##  2 Valle de 0.000100  1.40 77.4   1.71  59.6 0.0541 6.20e-3 1.00e-4 1.59 
##  3 Valle de 0.0686    1.13 80.8   3.54  43.9 0.0246 1.00e-4 5.17e-2 1.57 
##  4 Valle de 0.182     2.78 11.6   2.84  22.7 0.112  8.78e-3 1.00e-4 0.236
##  5 Valle de 0.0798    1.19 10.3   2.26  11.9 0.0674 1.74e-3 2.41e-2 0.181
##  6 Valle de 0.0610    3.70 46.5   1.83  32.7 0.0367 6.53e-5 4.62e-2 1.04 
##  7 Valle de 0.0329    1.64 65.6   2.16  46.3 0.0912 7.19e-3 6.06e-3 1.36 
##  8 Valle de 0.0603    1.70 39.2   5.40  33.2 0.122  4.55e-3 1.12e-2 0.711
##  9 Valle de 0.000100  3.93 54.7   2.84  44.2 0.0890 1.08e-2 1.00e-4 1.38 
## 10 Valle de 0.240     1.14  9.23  3.62  18.7 0.0614 1.44e-3 1.40e-2 0.137
## # ... with 144 more rows, and 19 more variables: Fe <dbl>, Co <dbl>,
## #   Ni <dbl>, Cu <dbl>, Zn <dbl>, As <dbl>, Se <dbl>, Rb <dbl>, Sr <dbl>,
## #   Mo <dbl>, Pd <dbl>, Ag <dbl>, Cd <dbl>, Sn <dbl>, Sb <dbl>, Hg <dbl>,
## #   `207 Pb` <dbl>, `208 Pb` <dbl>, label <dbl>
…
